logs/wave.vcd
$version Generated by VerilatedVcd $end
$date Wed Jan 11 19:44:39 2023 $end
$timescale 1ps $end

 $scope module TOP $end
  $var wire  1 )! clk $end
  $var wire 12 (! led_out [11:0] $end
  $var wire  1 *! rst $end
  $var wire 12 '! switch_on [11:0] $end
  $scope module jz_core_min_sopc $end
   $var wire  1 )! clk $end
   $var wire  1 +! clk_o $end
   $var wire 32 B inst [31:0] $end
   $var wire 32 A inst_addr [31:0] $end
   $var wire 12 (! led_out [11:0] $end
   $var wire 32 % mem_addr_i [31:0] $end
   $var wire  1 ( mem_ce_i $end
   $var wire 32 & mem_data_i [31:0] $end
   $var wire 32 ' mem_data_o [31:0] $end
   $var wire  1 $ mem_we_i $end
   $var wire  1 C rom_ce $end
   $var wire  1 *! rst $end
   $var wire 12 '! switch_on [11:0] $end
   $scope module core0 $end
    $var wire 32 : branch_target_address [31:0] $end
    $var wire  1 +! clk $end
    $var wire  8 F ex_aluop_i [7:0] $end
    $var wire  8 F ex_aluop_o [7:0] $end
    $var wire  3 G ex_alusel_i [2:0] $end
    $var wire 32 L ex_inst_i [31:0] $end
    $var wire 32 N ex_mem_addr_o [31:0] $end
    $var wire 32 H ex_reg1_i [31:0] $end
    $var wire 32 -! ex_reg1_o [31:0] $end
    $var wire 32 I ex_reg2_i [31:0] $end
    $var wire 32 I ex_reg2_o [31:0] $end
    $var wire  5 K ex_wd_i [4:0] $end
    $var wire  5 K ex_wd_o [4:0] $end
    $var wire 32 / ex_wdata_o [31:0] $end
    $var wire  1 J ex_wreg_i $end
    $var wire  1 M ex_wreg_o $end
    $var wire  8 ) id_aluop_o [7:0] $end
    $var wire  3 * id_alusel_o [2:0] $end
    $var wire  1 9 id_branch_flag_o $end
    $var wire 32 E id_inst_i [31:0] $end
    $var wire 32 E id_inst_o [31:0] $end
    $var wire 32 D id_pc_i [31:0] $end
    $var wire 32 + id_reg1_o [31:0] $end
    $var wire 32 , id_reg2_o [31:0] $end
    $var wire  5 . id_wd_o [4:0] $end
    $var wire  1 - id_wreg_o $end
    $var wire 12 (! led_out [11:0] $end
    $var wire  8 R mem_aluop_i [7:0] $end
    $var wire 32 S mem_mem_addr_i [31:0] $end
    $var wire 32 .! mem_reg1_i [31:0] $end
    $var wire 32 T mem_reg2_i [31:0] $end
    $var wire  5 P mem_wd_i [4:0] $end
    $var wire  5 1 mem_wd_o [4:0] $end
    $var wire 32 Q mem_wdata_i [31:0] $end
    $var wire 32 2 mem_wdata_o [31:0] $end
    $var wire  1 O mem_wreg_i $end
    $var wire  1 0 mem_wreg_o $end
    $var wire 32 A pc [31:0] $end
    $var wire 32 % ram_addr_o [31:0] $end
    $var wire  1 ( ram_ce_o $end
    $var wire 32 ' ram_data_i [31:0] $end
    $var wire 32 & ram_data_o [31:0] $end
    $var wire  1 $ ram_we_o $end
    $var wire  5 7 reg1_addr [4:0] $end
    $var wire 32 5 reg1_data [31:0] $end
    $var wire  1 3 reg1_read $end
    $var wire  5 8 reg2_addr [4:0] $end
    $var wire 32 6 reg2_data [31:0] $end
    $var wire  1 4 reg2_read $end
    $var wire 32 A rom_addr_o [31:0] $end
    $var wire  1 C rom_ce_o $end
    $var wire 32 B rom_data_i [31:0] $end
    $var wire  1 *! rst $end
    $var wire  6 ; stall [5:0] $end
    $var wire  1 < stallreq_from_id $end
    $var wire 12 '! switch_on [11:0] $end
    $var wire  5 V wb_wd_i [4:0] $end
    $var wire 32 W wb_wdata_i [31:0] $end
    $var wire  1 U wb_wreg_i $end
    $scope module ctrl0 $end
     $var wire  1 *! rst $end
     $var wire  6 ; stall [5:0] $end
     $var wire  1 < stallreq_from_id $end
    $upscope $end
    $scope module ex0 $end
     $var wire  8 F aluop_i [7:0] $end
     $var wire  8 F aluop_o [7:0] $end
     $var wire  3 G alusel_i [2:0] $end
     $var wire 32 @ arithmeticres [31:0] $end
     $var wire 32 L inst_i [31:0] $end
     $var wire 32 ? logicout [31:0] $end
     $var wire 32 N mem_addr_o [31:0] $end
     $var wire  1 %! ov_sum $end
     $var wire  1 /! reg1_eq_reg2 $end
     $var wire 32 H reg1_i [31:0] $end
     $var wire 32 #! reg1_i_not [31:0] $end
     $var wire  1 &! reg1_lt_reg2 $end
     $var wire 32 I reg2_i [31:0] $end
     $var wire 32 "! reg2_i_mux [31:0] $end
     $var wire 32 I reg2_o [31:0] $end
     $var wire 32 $! result_sum [31:0] $end
     $var wire  1 *! rst $end
     $var wire  5 K wd_i [4:0] $end
     $var wire  5 K wd_o [4:0] $end
     $var wire 32 / wdata_o [31:0] $end
     $var wire  1 J wreg_i $end
     $var wire  1 M wreg_o $end
    $upscope $end
    $scope module ex_mem0 $end
     $var wire  1 +! clk $end
     $var wire  8 F ex_aluop [7:0] $end
     $var wire 32 N ex_mem_addr [31:0] $end
     $var wire 32 I ex_reg2 [31:0] $end
     $var wire  5 K ex_wd [4:0] $end
     $var wire 32 / ex_wdata [31:0] $end
     $var wire  1 M ex_wreg $end
     $var wire  8 R mem_aluop [7:0] $end
     $var wire 32 S mem_mem_addr [31:0] $end
     $var wire 32 T mem_reg2 [31:0] $end
     $var wire  5 P mem_wd [4:0] $end
     $var wire 32 Q mem_wdata [31:0] $end
     $var wire  1 O mem_wreg $end
     $var wire  1 *! rst $end
     $var wire  6 ; stall [5:0] $end
    $upscope $end
    $scope module id0 $end
     $var wire  8 ) aluop_o [7:0] $end
     $var wire  3 * alusel_o [2:0] $end
     $var wire  1 9 branch_flag_o $end
     $var wire 32 : branch_target_address_o [31:0] $end
     $var wire  8 F ex_aluop_i [7:0] $end
     $var wire  5 K ex_wd_i [4:0] $end
     $var wire 32 / ex_wdata_i [31:0] $end
     $var wire  1 M ex_wreg_i $end
     $var wire 32 # imm [31:0] $end
     $var wire 32 ^ imm_sll2_signedext [31:0] $end
     $var wire 32 E inst_i [31:0] $end
     $var wire 32 E inst_o [31:0] $end
     $var wire  5 1 mem_wd_i [4:0] $end
     $var wire 32 2 mem_wdata_i [31:0] $end
     $var wire  1 0 mem_wreg_i $end
     $var wire  6 X op [5:0] $end
     $var wire  5 Y op2 [4:0] $end
     $var wire  6 Z op3 [5:0] $end
     $var wire  5 [ op4 [4:0] $end
     $var wire 32 D pc_i [31:0] $end
     $var wire 32 ] pc_plus_4 [31:0] $end
     $var wire 32 \ pc_plus_8 [31:0] $end
     $var wire  1 _ pre_inst_is_load $end
     $var wire  5 7 reg1_addr_o [4:0] $end
     $var wire 32 5 reg1_data_i [31:0] $end
     $var wire 32 + reg1_o [31:0] $end
     $var wire  1 3 reg1_read_o $end
     $var wire  5 8 reg2_addr_o [4:0] $end
     $var wire 32 6 reg2_data_i [31:0] $end
     $var wire 32 , reg2_o [31:0] $end
     $var wire  1 4 reg2_read_o $end
     $var wire  1 *! rst $end
     $var wire  1 < stallreq $end
     $var wire  1 = stallreq_for_reg1_loadrelate $end
     $var wire  1 > stallreq_for_reg2_loadrelate $end
     $var wire  5 . wd_o [4:0] $end
     $var wire  1 - wreg_o $end
    $upscope $end
    $scope module id_ex0 $end
     $var wire  1 +! clk $end
     $var wire  8 F ex_aluop [7:0] $end
     $var wire  3 G ex_alusel [2:0] $end
     $var wire 32 L ex_inst [31:0] $end
     $var wire 32 H ex_reg1 [31:0] $end
     $var wire 32 I ex_reg2 [31:0] $end
     $var wire  5 K ex_wd [4:0] $end
     $var wire  1 J ex_wreg $end
     $var wire  8 ) id_aluop [7:0] $end
     $var wire  3 * id_alusel [2:0] $end
     $var wire 32 E id_inst [31:0] $end
     $var wire 32 + id_reg1 [31:0] $end
     $var wire 32 , id_reg2 [31:0] $end
     $var wire  5 . id_wd [4:0] $end
     $var wire  1 - id_wreg $end
     $var wire  1 *! rst $end
     $var wire  6 ; stall [5:0] $end
    $upscope $end
    $scope module if_id0 $end
     $var wire  1 +! clk $end
     $var wire 32 E id_inst [31:0] $end
     $var wire 32 D id_pc [31:0] $end
     $var wire 32 B if_inst [31:0] $end
     $var wire 32 A if_pc [31:0] $end
     $var wire  1 *! rst $end
     $var wire  6 ; stall [5:0] $end
    $upscope $end
    $scope module mem0 $end
     $var wire  8 R aluop_i [7:0] $end
     $var wire 12 (! led_out [11:0] $end
     $var wire 32 S mem_addr_i [31:0] $end
     $var wire 32 % mem_addr_o [31:0] $end
     $var wire  1 ( mem_ce_o $end
     $var wire 32 ' mem_data_i [31:0] $end
     $var wire 32 & mem_data_o [31:0] $end
     $var wire  1 $ mem_we $end
     $var wire  1 $ mem_we_o $end
     $var wire 32 T reg2_i [31:0] $end
     $var wire  1 *! rst $end
     $var wire 12 '! switch_on [11:0] $end
     $var wire  5 P wd_i [4:0] $end
     $var wire  5 1 wd_o [4:0] $end
     $var wire 32 Q wdata_i [31:0] $end
     $var wire 32 2 wdata_o [31:0] $end
     $var wire  1 O wreg_i $end
     $var wire  1 0 wreg_o $end
     $var wire 32 0! zero32 [31:0] $end
    $upscope $end
    $scope module mem_wb0 $end
     $var wire  1 +! clk $end
     $var wire  5 1 mem_wd [4:0] $end
     $var wire 32 2 mem_wdata [31:0] $end
     $var wire  1 0 mem_wreg $end
     $var wire  1 *! rst $end
     $var wire  6 ; stall [5:0] $end
     $var wire  5 V wb_wd [4:0] $end
     $var wire 32 W wb_wdata [31:0] $end
     $var wire  1 U wb_wreg $end
    $upscope $end
    $scope module pc_reg0 $end
     $var wire  1 9 branch_flag_i $end
     $var wire 32 : branch_target_address_i [31:0] $end
     $var wire  1 C ce $end
     $var wire  1 +! clk $end
     $var wire 32 A pc [31:0] $end
     $var wire  1 *! rst $end
     $var wire  6 ; stall [5:0] $end
    $upscope $end
    $scope module regfile1 $end
     $var wire  1 +! clk $end
     $var wire  5 7 raddr1 [4:0] $end
     $var wire  5 8 raddr2 [4:0] $end
     $var wire 32 5 rdata1 [31:0] $end
     $var wire 32 6 rdata2 [31:0] $end
     $var wire  1 3 re1 $end
     $var wire  1 4 re2 $end
     $var wire 32 ` regs(0) [31:0] $end
     $var wire 32 a regs(1) [31:0] $end
     $var wire 32 j regs(10) [31:0] $end
     $var wire 32 k regs(11) [31:0] $end
     $var wire 32 l regs(12) [31:0] $end
     $var wire 32 m regs(13) [31:0] $end
     $var wire 32 n regs(14) [31:0] $end
     $var wire 32 o regs(15) [31:0] $end
     $var wire 32 p regs(16) [31:0] $end
     $var wire 32 q regs(17) [31:0] $end
     $var wire 32 r regs(18) [31:0] $end
     $var wire 32 s regs(19) [31:0] $end
     $var wire 32 b regs(2) [31:0] $end
     $var wire 32 t regs(20) [31:0] $end
     $var wire 32 u regs(21) [31:0] $end
     $var wire 32 v regs(22) [31:0] $end
     $var wire 32 w regs(23) [31:0] $end
     $var wire 32 x regs(24) [31:0] $end
     $var wire 32 y regs(25) [31:0] $end
     $var wire 32 z regs(26) [31:0] $end
     $var wire 32 { regs(27) [31:0] $end
     $var wire 32 | regs(28) [31:0] $end
     $var wire 32 } regs(29) [31:0] $end
     $var wire 32 c regs(3) [31:0] $end
     $var wire 32 ~ regs(30) [31:0] $end
     $var wire 32 !! regs(31) [31:0] $end
     $var wire 32 d regs(4) [31:0] $end
     $var wire 32 e regs(5) [31:0] $end
     $var wire 32 f regs(6) [31:0] $end
     $var wire 32 g regs(7) [31:0] $end
     $var wire 32 h regs(8) [31:0] $end
     $var wire 32 i regs(9) [31:0] $end
     $var wire  1 *! rst $end
     $var wire  5 V waddr [4:0] $end
     $var wire 32 W wdata [31:0] $end
     $var wire  1 U we $end
    $upscope $end
   $upscope $end
   $scope module data_ram0 $end
    $var wire 32 % addr [31:0] $end
    $var wire  1 ( ce $end
    $var wire  1 +! clk $end
    $var wire 32 & data_i [31:0] $end
    $var wire 32 ' data_o [31:0] $end
    $var wire  1 $ we $end
   $upscope $end
   $scope module fp0 $end
    $var wire  1 )! clk $end
    $var wire 31 ,! count [30:0] $end
    $var wire  1 +! fp_clk $end
    $var wire  1 *! rst $end
   $upscope $end
   $scope module inst_rom0 $end
    $var wire 32 A addr [31:0] $end
    $var wire  1 C ce $end
    $var wire 32 B inst [31:0] $end
   $upscope $end
  $upscope $end
 $upscope $end
$enddefinitions $end


#0
b00000000000000000000000000000000 #
0$
b00000000000000000000000000000000 %
b00000000000000000000000000000000 &
b00000000000000000000000000000000 '
0(
b00000000 )
b000 *
b00000000000000000000000000000000 +
b00000000000000000000000000000000 ,
0-
b00000 .
b00000000000000000000000000000000 /
00
b00000 1
b00000000000000000000000000000000 2
03
04
b00000000000000000000000000000000 5
b00000000000000000000000000000000 6
b00000 7
b00000 8
09
b00000000000000000000000000000000 :
b000000 ;
0<
0=
0>
b00000000000000000000000000000000 ?
b00000000000000000000000000000000 @
b00111101111110001001100110011110 A
b00000000000000000000000000000000 B
0C
b01111011001100110001110011101110 D
b10011000001110110110101100010000 E
b10000001 F
b011 G
b11000100010101001100001001111000 H
b01100000011000101011111001101111 I
0J
b10111 K
b10010011011110010001101011010001 L
0M
b11000100010101001101110101001001 N
1O
b11011 P
b00011001101100101000100110010100 Q
b11100010 R
b10000010011111111111000101100110 S
b10111101010101001011001100001001 T
1U
b10011 V
b11011111011100101110101001001011 W
b100110 X
b01100 Y
b010000 Z
b11011 [
b01111011001100110001110011110110 \
b01111011001100110001110011110010 ]
b00000000000000011010110001000000 ^
0_
b10010011011011111000110011111100 `
b00010011010100011100000100111101 a
b10010101110011111010010001101100 b
b01000000110011010101001100001110 c
b01010110010100111001101011100111 d
b01000000001110100101001000110111 e
b00011000111001111010111001000111 f
b00111101110001111001001101000000 g
b01010111000001010100100000110011 h
b11100000011000010001001100011100 i
b11011010110001110001101010110110 j
b11101101110000011110001011010111 k
b01000001011101001110010100111010 l
b10101100000000110100101001100111 m
b01001101010001011111011001010011 n
b11000001000011111011111010000100 o
b00111000011011011110100011110100 p
b01011110111011101000011011100100 q
b10010000011001000111101100101000 r
b11010010111111010100001101100111 s
b10001101001111111101100010010101 t
b10100110000001001010011100111100 u
b11010100101110010001101101100100 v
b11011110110111000100000110010101 w
b00010101100110101001011110001010 x
b10010001101011110100011100111101 y
b00000100110001100111000001111111 z
b10011011100110000011100101011011 {
b00110000111010101010100011011100 |
b10000000010110101100101111101100 }
b11010111010010101101011011000110 ~
b00001001000111110000000001000110 !!
b01100000011000101011111001101111 "!
b00111011101010110011110110000111 #!
b00100100101101111000000011100111 $!
0%!
0&!
b001111000100 '!
b110110011100 (!
0)!
0*!
1+!
b1011010000110111000010100011110 ,!
b11110001101010000000110010101000 -!
b11101111111111000001101100011111 .!
1/!
b00000000000000000000000000000000 0!
#1
1)!
0+!
b0000000000000000000000000000000 ,!
#2
#3
#4
#5
#6
0)!
#7
#8
#9
#10
#11
1)!
#12
#13
#14
#15
#16
0)!
#17
#18
#19
#20
#21
1)!
#22
#23
#24
#25
#26
0)!
#27
#28
#29
#30
#31
1)!
#32
#33
#34
#35
#36
0)!
#37
#38
#39
#40
#41
1)!
#42
#43
#44
#45
#46
0)!
#47
#48
#49
#50
#51
1)!
#52
#53
#54
#55
#56
0)!
#57
#58
#59
#60
#61
1)!
#62
#63
#64
#65
#66
0)!
#67
#68
#69
#70
#71
1)!
#72
#73
#74
#75
#76
0)!
#77
#78
#79
#80
#81
1)!
#82
#83
#84
#85
#86
0)!
#87
#88
#89
#90
#91
1)!
#92
#93
#94
#95
#96
0)!
#97
#98
#99
#100
#101
1)!
#102
#103
#104
#105
#106
0)!
#107
#108
#109
#110
#111
1)!
#112
#113
#114
#115
#116
0)!
#117
#118
#119
#120
#121
1)!
#122
#123
#124
#125
#126
0)!
#127
#128
#129
#130
#131
1)!
#132
#133
#134
#135
#136
0)!
#137
#138
#139
#140
#141
1)!
#142
#143
#144
#145
#146
0)!
#147
#148
#149
#150
#151
1)!
#152
#153
#154
#155
#156
0)!
#157
#158
#159
#160
#161
1)!
#162
#163
#164
#165
#166
0)!
#167
#168
#169
#170
#171
1)!
#172
#173
#174
#175
#176
0)!
#177
#178
#179
#180
#181
1)!
#182
#183
#184
#185
#186
0)!
#187
#188
#189
#190
#191
1)!
#192
#193
#194
#195
#196
0)!
#197
#198
#199
#200
#201
1)!
#202
#203
#204
#205
#206
0)!
#207
#208
#209
#210
#211
1)!
#212
#213
#214
#215
#216
0)!
#217
#218
#219
#220
#221
1)!
#222
#223
#224
#225
#226
0)!
#227
#228
#229
#230
#231
1)!
#232
#233
#234
#235
#236
0)!
#237
#238
#239
#240
#241
1)!
#242
#243
#244
#245
#246
0)!
#247
#248
#249
#250
#251
1)!
#252
#253
#254
#255
#256
0)!
#257
#258
#259
#260
#261
1)!
#262
#263
#264
#265
#266
0)!
#267
#268
#269
#270
#271
1)!
#272
#273
#274
#275
#276
0)!
#277
#278
#279
#280
#281
1)!
#282
#283
#284
#285
#286
0)!
#287
#288
#289
#290
#291
1)!
#292
#293
#294
#295
#296
0)!
#297
#298
#299
#300
#301
1)!
#302
#303
#304
#305
#306
0)!
#307
#308
#309
#310
#311
1)!
#312
#313
#314
#315
#316
0)!
#317
#318
#319
#320
#321
1)!
#322
#323
#324
#325
#326
0)!
#327
#328
#329
#330
#331
1)!
#332
#333
#334
#335
#336
0)!
#337
#338
#339
#340
#341
1)!
#342
#343
#344
#345
#346
0)!
#347
#348
#349
#350
#351
1)!
#352
#353
#354
#355
#356
0)!
#357
#358
#359
#360
#361
1)!
#362
#363
#364
#365
#366
0)!
#367
#368
#369
#370
#371
1)!
#372
#373
#374
#375
#376
0)!
#377
#378
#379
#380
#381
1)!
#382
#383
#384
#385
#386
0)!
#387
#388
#389
#390
#391
1)!
#392
#393
#394
#395
#396
0)!
#397
#398
#399
#400
#401
1)!
#402
#403
#404
#405
#406
0)!
#407
#408
#409
#410
#411
1)!
#412
#413
#414
#415
#416
0)!
#417
#418
#419
#420
#421
1)!
#422
#423
#424
#425
#426
0)!
#427
#428
#429
#430
#431
1)!
#432
#433
#434
#435
#436
0)!
#437
#438
#439
#440
#441
1)!
#442
#443
#444
#445
#446
0)!
#447
#448
#449
#450
#451
1)!
#452
#453
#454
#455
#456
0)!
#457
#458
#459
#460
#461
1)!
#462
#463
#464
#465
#466
0)!
#467
#468
#469
#470
#471
1)!
#472
#473
#474
#475
#476
0)!
#477
#478
#479
#480
#481
1)!
#482
#483
#484
#485
#486
0)!
#487
#488
#489
#490
#491
1)!
#492
#493
#494
#495
#496
0)!
#497
#498
#499
#500
#501
1)!
#502
#503
#504
#505
#506
0)!
#507
#508
#509
#510
#511
1)!
#512
#513
#514
#515
#516
0)!
#517
#518
#519
#520
#521
1)!
#522
#523
#524
#525
#526
0)!
#527
#528
#529
#530
#531
1)!
#532
#533
#534
#535
#536
0)!
#537
#538
#539
#540
#541
1)!
#542
#543
#544
#545
#546
0)!
#547
#548
#549
#550
#551
1)!
#552
#553
#554
#555
#556
0)!
#557
#558
#559
#560
#561
1)!
#562
#563
#564
#565
#566
0)!
#567
#568
#569
#570
#571
1)!
#572
#573
#574
#575
#576
0)!
#577
#578
#579
#580
#581
1)!
#582
#583
#584
#585
#586
0)!
#587
#588
#589
#590
#591
1)!
#592
#593
#594
#595
#596
0)!
#597
#598
#599
#600
#601
1)!
#602
#603
#604
#605
#606
0)!
#607
#608
#609
#610
#611
1)!
#612
#613
#614
#615
#616
0)!
#617
#618
#619
#620
#621
1)!
#622
#623
#624
#625
#626
0)!
#627
#628
#629
#630
#631
1)!
#632
#633
#634
#635
#636
0)!
#637
#638
#639
#640
#641
1)!
#642
#643
#644
#645
#646
0)!
#647
#648
#649
#650
#651
1)!
#652
#653
#654
#655
#656
0)!
#657
#658
#659
#660
#661
1)!
#662
#663
#664
#665
#666
0)!
#667
#668
#669
#670
#671
1)!
#672
#673
#674
#675
#676
0)!
#677
#678
#679
#680
#681
1)!
#682
#683
#684
#685
#686
0)!
#687
#688
#689
#690
#691
1)!
#692
#693
#694
#695
#696
0)!
#697
#698
#699
#700
#701
1)!
#702
#703
#704
#705
#706
0)!
#707
#708
#709
#710
#711
1)!
#712
#713
#714
#715
#716
0)!
#717
#718
#719
#720
#721
1)!
#722
#723
#724
#725
#726
0)!
#727
#728
#729
#730
#731
1)!
#732
#733
#734
#735
#736
0)!
#737
#738
#739
#740
#741
1)!
#742
#743
#744
#745
#746
0)!
#747
#748
#749
#750
#751
1)!
#752
#753
#754
#755
#756
0)!
#757
#758
#759
#760
#761
1)!
#762
#763
#764
#765
#766
0)!
#767
#768
#769
#770
#771
1)!
#772
#773
#774
#775
#776
0)!
#777
#778
#779
#780
#781
1)!
#782
#783
#784
#785
#786
0)!
#787
#788
#789
#790
#791
1)!
#792
#793
#794
#795
#796
0)!
#797
#798
#799
#800
#801
1)!
#802
#803
#804
#805
#806
0)!
#807
#808
#809
#810
#811
1)!
#812
#813
#814
#815
#816
0)!
#817
#818
#819
#820
#821
1)!
#822
#823
#824
#825
#826
0)!
#827
#828
#829
#830
#831
1)!
#832
#833
#834
#835
#836
0)!
#837
#838
#839
#840
#841
1)!
#842
#843
#844
#845
#846
0)!
#847
#848
#849
#850
#851
1)!
#852
#853
#854
#855
#856
0)!
#857
#858
#859
#860
#861
1)!
#862
#863
#864
#865
#866
0)!
#867
#868
#869
#870
#871
1)!
#872
#873
#874
#875
#876
0)!
#877
#878
#879
#880
#881
1)!
#882
#883
#884
#885
#886
0)!
#887
#888
#889
#890
#891
1)!
#892
#893
#894
#895
#896
0)!
#897
#898
#899
#900
#901
1)!
#902
#903
#904
#905
#906
0)!
#907
#908
#909
#910
#911
1)!
#912
#913
#914
#915
#916
0)!
#917
#918
#919
#920
#921
1)!
#922
#923
#924
#925
#926
0)!
#927
#928
#929
#930
#931
1)!
#932
#933
#934
#935
#936
0)!
#937
#938
#939
#940
#941
1)!
#942
#943
#944
#945
#946
0)!
#947
#948
#949
#950
#951
1)!
#952
#953
#954
#955
#956
0)!
#957
#958
#959
#960
#961
1)!
#962
#963
#964
#965
#966
0)!
#967
#968
#969
#970
#971
1)!
#972
#973
#974
#975
#976
0)!
#977
#978
#979
#980
#981
1)!
#982
#983
#984
#985
#986
0)!
#987
#988
#989
#990
#991
1)!
#992
#993
#994
#995
#996
0)!
#997
#998
#999
#1000
#1001
b01101 .
10
b11011 1
b00011001101100101000100110010100 2
b00001 7
b11011 8
1)!
1*!
b0000000000000000000000000000001 ,!
#1002
#1003
#1004
#1005
#1006
0)!
#1007
#1008
#1009
#1010
#1011
1)!
b0000000000000000000000000000010 ,!
#1012
#1013
#1014
#1015
#1016
0)!
#1017
#1018
#1019
#1020
#1021
1)!
b0000000000000000000000000000011 ,!
#1022
#1023
#1024
#1025
#1026
0)!
#1027
#1028
#1029
#1030
#1031
1)!
b0000000000000000000000000000100 ,!
#1032
#1033
#1034
#1035
#1036
0)!
#1037
#1038
#1039
#1040
#1041
1)!
b0000000000000000000000000000101 ,!
#1042
#1043
#1044
#1045
#1046
0)!
#1047
#1048
#1049
#1050
#1051
1)!
b0000000000000000000000000000110 ,!
#1052
#1053
#1054
#1055
#1056
0)!
#1057
#1058
#1059
#1060
#1061
1)!
b0000000000000000000000000000111 ,!
#1062
#1063
#1064
#1065
#1066
0)!
#1067
#1068
#1069
#1070
#1071
1)!
b0000000000000000000000000001000 ,!
#1072
#1073
#1074
#1075
#1076
0)!
#1077
#1078
#1079
#1080
#1081
1)!
b0000000000000000000000000001001 ,!
#1082
#1083
#1084
#1085
#1086
0)!
#1087
#1088
#1089
#1090
#1091
1)!
b0000000000000000000000000001010 ,!
#1092
#1093
#1094
#1095
#1096
0)!
#1097
#1098
#1099
#1100
#1101
1)!
b0000000000000000000000000001011 ,!
#1102
#1103
#1104
#1105
#1106
0)!
#1107
#1108
#1109
#1110
#1111
1)!
b0000000000000000000000000001100 ,!
#1112
#1113
#1114
#1115
#1116
0)!
#1117
#1118
#1119
#1120
#1121
1)!
b0000000000000000000000000001101 ,!
#1122
#1123
#1124
#1125
#1126
0)!
#1127
#1128
#1129
#1130
#1131
1)!
b0000000000000000000000000001110 ,!
#1132
#1133
#1134
#1135
#1136
0)!
#1137
#1138
#1139
#1140
#1141
1)!
b0000000000000000000000000001111 ,!
#1142
#1143
#1144
#1145
#1146
0)!
#1147
#1148
#1149
#1150
#1151
1)!
b0000000000000000000000000010000 ,!
#1152
#1153
#1154
#1155
#1156
0)!
#1157
#1158
#1159
#1160
#1161
1)!
b0000000000000000000000000010001 ,!
#1162
#1163
#1164
#1165
#1166
0)!
#1167
#1168
#1169
#1170
#1171
1)!
b0000000000000000000000000010010 ,!
#1172
#1173
#1174
#1175
#1176
0)!
#1177
#1178
#1179
#1180
#1181
1)!
b0000000000000000000000000010011 ,!
#1182
#1183
#1184
#1185
#1186
0)!
#1187
#1188
#1189
#1190
#1191
1)!
b0000000000000000000000000010100 ,!
#1192
#1193
#1194
#1195
#1196
0)!
#1197
#1198
#1199
#1200
#1201
1)!
b0000000000000000000000000010101 ,!
#1202
#1203
#1204
#1205
#1206
0)!
#1207
#1208
#1209
#1210
#1211
1)!
b0000000000000000000000000010110 ,!
#1212
#1213
#1214
#1215
#1216
0)!
#1217
#1218
#1219
#1220
#1221
1)!
b0000000000000000000000000010111 ,!
#1222
#1223
#1224
#1225
#1226
0)!
#1227
#1228
#1229
#1230
#1231
1)!
b0000000000000000000000000011000 ,!
#1232
#1233
#1234
#1235
#1236
0)!
#1237
#1238
#1239
#1240
#1241
1)!
b0000000000000000000000000011001 ,!
#1242
#1243
#1244
#1245
#1246
0)!
#1247
#1248
#1249
#1250
#1251
1)!
b0000000000000000000000000011010 ,!
#1252
#1253
#1254
#1255
#1256
0)!
#1257
#1258
#1259
#1260
#1261
1)!
b0000000000000000000000000011011 ,!
#1262
#1263
#1264
#1265
#1266
0)!
#1267
#1268
#1269
#1270
#1271
1)!
b0000000000000000000000000011100 ,!
#1272
#1273
#1274
#1275
#1276
0)!
#1277
#1278
#1279
#1280
#1281
1)!
b0000000000000000000000000011101 ,!
#1282
#1283
#1284
#1285
#1286
0)!
#1287
#1288
#1289
#1290
#1291
1)!
b0000000000000000000000000011110 ,!
#1292
#1293
#1294
#1295
#1296
0)!
#1297
#1298
#1299
#1300
#1301
1)!
b0000000000000000000000000011111 ,!
#1302
#1303
#1304
#1305
#1306
0)!
#1307
#1308
#1309
#1310
#1311
1)!
b0000000000000000000000000100000 ,!
#1312
#1313
#1314
#1315
#1316
0)!
#1317
#1318
#1319
#1320
#1321
1)!
b0000000000000000000000000100001 ,!
#1322
#1323
#1324
#1325
#1326
0)!
#1327
#1328
#1329
#1330
#1331
1)!
b0000000000000000000000000100010 ,!
#1332
#1333
#1334
#1335
#1336
0)!
#1337
#1338
#1339
#1340
#1341
1)!
b0000000000000000000000000100011 ,!
#1342
#1343
#1344
#1345
#1346
0)!
#1347
#1348
#1349
#1350
#1351
1)!
b0000000000000000000000000100100 ,!
#1352
#1353
#1354
#1355
#1356
0)!
#1357
#1358
#1359
#1360
#1361
1)!
b0000000000000000000000000100101 ,!
#1362
#1363
#1364
#1365
#1366
0)!
#1367
#1368
#1369
#1370
#1371
1)!
b0000000000000000000000000100110 ,!
#1372
#1373
#1374
#1375
#1376
0)!
#1377
#1378
#1379
#1380
#1381
1)!
b0000000000000000000000000100111 ,!
#1382
#1383
#1384
#1385
#1386
0)!
#1387
#1388
#1389
#1390
#1391
1)!
b0000000000000000000000000101000 ,!
#1392
#1393
#1394
#1395
#1396
0)!
#1397
#1398
#1399
#1400
#1401
1)!
b0000000000000000000000000101001 ,!
#1402
#1403
#1404
#1405
#1406
0)!
#1407
#1408
#1409
#1410
#1411
1)!
b0000000000000000000000000101010 ,!
#1412
#1413
#1414
#1415
#1416
0)!
#1417
#1418
#1419
#1420
#1421
1)!
b0000000000000000000000000101011 ,!
#1422
#1423
#1424
#1425
#1426
0)!
#1427
#1428
#1429
#1430
#1431
1)!
b0000000000000000000000000101100 ,!
#1432
#1433
#1434
#1435
#1436
0)!
#1437
#1438
#1439
#1440
#1441
1)!
b0000000000000000000000000101101 ,!
#1442
#1443
#1444
#1445
#1446
0)!
#1447
#1448
#1449
#1450
#1451
1)!
b0000000000000000000000000101110 ,!
#1452
#1453
#1454
#1455
#1456
0)!
#1457
#1458
#1459
#1460
#1461
1)!
b0000000000000000000000000101111 ,!
#1462
#1463
#1464
#1465
#1466
0)!
#1467
#1468
#1469
#1470
#1471
1)!
b0000000000000000000000000110000 ,!
#1472
#1473
#1474
#1475
#1476
0)!
#1477
#1478
#1479
#1480
#1481
1)!
b0000000000000000000000000110001 ,!
#1482
#1483
#1484
#1485
#1486
0)!
#1487
#1488
#1489
#1490
#1491
1)!
b0000000000000000000000000110010 ,!
#1492
#1493
#1494
#1495
#1496
0)!
#1497
#1498
#1499
#1500
#1501
1)!
b0000000000000000000000000110011 ,!
#1502
#1503
#1504
#1505
#1506
0)!
#1507
#1508
#1509
#1510
#1511
1)!
b0000000000000000000000000110100 ,!
#1512
#1513
#1514
#1515
#1516
0)!
#1517
#1518
#1519
#1520
#1521
1)!
b0000000000000000000000000110101 ,!
#1522
#1523
#1524
#1525
#1526
0)!
#1527
#1528
#1529
#1530
#1531
1)!
b0000000000000000000000000110110 ,!
#1532
#1533
#1534
#1535
#1536
0)!
#1537
#1538
#1539
#1540
#1541
1)!
b0000000000000000000000000110111 ,!
#1542
#1543
#1544
#1545
#1546
0)!
#1547
#1548
#1549
#1550
#1551
1)!
b0000000000000000000000000111000 ,!
#1552
#1553
#1554
#1555
#1556
0)!
#1557
#1558
#1559
#1560
#1561
1)!
b0000000000000000000000000111001 ,!
#1562
#1563
#1564
#1565
#1566
0)!
#1567
#1568
#1569
#1570
#1571
1)!
b0000000000000000000000000111010 ,!
#1572
#1573
#1574
#1575
#1576
0)!
#1577
#1578
#1579
#1580
#1581
1)!
b0000000000000000000000000111011 ,!
#1582
#1583
#1584
